async-generator==1.10
attrs==21.4.0
certifi==2021.10.8
cffi==1.15.0
cryptography==36.0.2
h11==0.13.0
idna==3.3
numpy==1.22.3
outcome==1.1.0
pandas==1.4.1
pycparser==2.21
pyOpenSSL==22.0.0
PySocks==1.7.1
python-dateutil==2.8.2
python-dotenv==0.20.0
pytz==2022.1
selenium==4.1.3
six==1.16.0
sniffio==1.2.0
sortedcontainers==2.4.0
trio==0.20.0
trio-websocket==0.9.2
urllib3==1.26.9
wsproto==1.1.0
